%FSDIX44Y44*%
%MOMM*%
%SFA1B1*%

%IPPOS*%
%AMD101*
20,1,1.703200,-0.175260,0.175260,0.175260,-0.175260,0.0*
1,1,1.703200,-0.175260,0.175260*
1,1,1.703200,0.175260,-0.175260*
%
%AMD104*
20,1,2.403200,0.281940,0.281940,-0.281940,-0.281940,0.0*
1,1,2.403200,0.281940,0.281940*
1,1,2.403200,-0.281940,-0.281940*
%
%ADD10C,0.200000*%
%ADD97C,2.703195*%
%ADD98O,3.203194X2.203196*%
%ADD99C,0.203200*%
%ADD100C,2.203196*%
%ADD101D101*%
%ADD102O,1.703197X2.203196*%
%ADD103C,2.403195*%
%ADD104D104*%
%ADD105O,3.203194X2.403195*%
%ADD106O,2.703195X2.203196*%
%ADD107O,2.703195X2.203196*%
%LNlayer_4-1*%
%LPD*%
G36*
X00236479Y01975053D02*
X-00040500D01*
X-00007750Y00004750*
X-00005750Y00005750*
X-00001249Y00005750*
X-00000249Y00004999*
X00001499Y00018999*
X00012500*
Y00021750*
X00008500Y00008500*
X00041499*
X00003750Y-00002250*
X00003500Y-00002750*
X00002750Y-00002499*
X00001999Y-00002750*
X00001249Y-00004750*
X00000750Y-00006249*
X-00000500Y-00009499*
X-00000999Y-00009500*
X-00012500*
Y-00021750*
X-00008499Y-00008500*
G37*
G36*
Y-00270406D02*
X-00040500D01*
X-00007750Y00004750*
X-00005750Y00005750*
X-00001249Y00005749*
X-00000249Y00004999*
X00001499Y00019000*
X00012500*
Y00021749*
X00008500Y00008500*
X00041499*
X00003750Y-00002249*
X00003500Y-00002750*
X00002750Y-00002500*
X00001999Y-00002749*
X00001249Y-00004750*
X00000750Y-00006249*
X-00000500Y-00009500*
X-00000999Y-00009500*
X-00012500*
Y-00021749*
X-00008499Y-00008500*
G37*
G36*
Y-00270406D02*
X-00040500D01*
X-00007750Y00004749*
X-00005750Y00005750*
X-00001249Y00005750*
X-00000249Y00004999*
X00001499Y00018999*
X00012500*
Y00021750*
X00008500Y00008500*
X00041499*
X00003750Y-00002250*
X00003500Y-00002749*
X00002750Y-00002500*
X00001999Y-00002750*
X00001249Y-00004750*
X00000750Y-00006249*
X-00000500Y-00009499*
X-00000999Y-00009500*
X-00012500*
Y-00021750*
X-00008499Y-00008499*
G37*
G36*
Y-00270407D02*
X-00040500D01*
X-00007750Y00004750*
X-00005750Y00005750*
X-00001249Y00005749*
X-00000249Y00004999*
X00001499Y00019000*
X00012500*
Y00021750*
X00008500Y00008499*
X00041499*
X00003750Y-00002249*
X00003500Y-00002750*
X00002750Y-00002499*
X00001999Y-00002750*
X00001249Y-00004750*
X00000750Y-00006249*
X-00000500Y-00009500*
X-00000999Y-00009499*
X-00012500*
Y-00021750*
X-00008499Y-00008500*
G37*
G36*
Y-00270406D02*
X-00040500D01*
X-00007750Y00004749*
X-00005750Y00005750*
X-00001249Y00005750*
X-00000249Y00004999*
X00001499Y00018999*
X00012500*
Y00021750*
X00008500Y00008500*
X00041499*
X00003750Y-00002250*
X00003500Y-00002749*
X00002750Y-00002500*
X00001999Y-00002750*
X00001249Y-00004750*
X00000750Y-00006249*
X-00000500Y-00009499*
X-00000999Y-00009500*
X-00012500*
Y-00021750*
X-00008499Y-00008499*
G37*
G36*
Y-00270407D02*
X-00040500D01*
X-00007750Y00004750*
X-00005750Y00005750*
X-00001249Y00005749*
X-00000249Y00004999*
X00001499Y00019000*
X00012500*
Y00021750*
X00008500Y00008499*
X00041499*
X00003750Y-00002249*
X00003500Y-00002750*
X00002750Y-00002499*
X00001999Y-00002750*
X00001249Y-00004750*
X00000750Y-00006249*
X-00000500Y-00009500*
X-00000999Y-00009499*
X-00012500*
Y-00021750*
X-00008499Y-00008500*
G37*
G36*
Y-00270406D02*
X-00040500D01*
X-00007750Y00004749*
X-00005750Y00005750*
X-00001249Y00005750*
X-00000249Y00004999*
X00001499Y00018999*
X00012500*
Y00021750*
X00008500Y00008500*
X00041499*
X00003750Y-00002250*
X00003500Y-00002749*
X00002750Y-00002500*
X00001999Y-00002750*
X00001249Y-00004750*
X00000750Y-00006249*
X-00000500Y-00009499*
X-00000999Y-00009500*
X-00012500*
Y-00021750*
X-00008499Y-00008499*
G37*
G36*
Y-00270407D02*
X-00040500D01*
X-00007750Y00004750*
X-00005750Y00005750*
X-00001249Y00005749*
X-00000249Y00004999*
X00001499Y00019000*
X00012500*
Y00021750*
X00008500Y00008499*
X00041499*
X00003750Y-00002249*
X00003500Y-00002750*
X00002750Y-00002499*
X00001999Y-00002750*
X00001249Y-00004750*
X00000750Y-00006249*
X-00000500Y-00009500*
X-00000999Y-00009499*
X-00012500*
Y-00021750*
X-00008499Y-00008500*
G37*
%LNlayer_4-2*%
%LPC*%
G36*
X00235729Y01985553D02*
X-00000249Y00000249D01*
Y00028750*
X-00000999Y00000999*
X-00011999*
X-00001500Y-00000249*
X-00001750Y-00000999*
X-00001749Y-00001249*
X-00001750Y-00000999*
X-00000999Y-00000249*
X-00000999Y00000249*
X-00000999Y00001249*
X-00000750Y00003249*
X-00000499Y00002999*
Y00002500*
X00000249Y00004750*
X00000999Y00001999*
X00001499Y00001499*
X00025000*
X00005749Y-00005750*
Y-00009249*
X00008250*
X-00002250Y00014249*
X-00010499Y00009250*
X-00032500*
X-00003750Y-00003750*
X00000250Y-00000249*
Y-00028750*
X00000999Y-00000999*
X00010749*
X00002250Y00000249*
X00001999Y00000750*
X00003249Y00002249*
X00001999*
X00001500Y-00000999*
X00000499Y-00002500*
X00000500Y-00003249*
X00000249Y-00002999*
Y-00002249*
X-00000249Y-00002500*
X-00000999Y-00001999*
X-00001500Y-00001499*
X-00024999*
X-00005750Y00005750*
Y00009249*
X-00007249*
X-00000750Y-00002750*
X00001999Y-00011499*
X00010500Y-00009250*
X00032499*
X00003750Y00003750*
G37*
G36*
Y-00270406D02*
X-00000249Y00000249D01*
Y00028750*
X-00000999Y00000999*
X-00011999*
X-00001500Y-00000249*
X-00001750Y-00000999*
X-00001749Y-00001250*
X-00001750Y-00000999*
X-00000999Y-00000249*
X-00000999Y00000249*
X-00000999Y00001250*
X-00000750Y00003249*
X-00000499Y00002999*
Y00002499*
X00000249Y00004750*
X00000999Y00001999*
X00001499Y00001500*
X00025000*
X00005749Y-00005750*
Y-00009249*
X00008250*
X-00002250Y00014249*
X-00010499Y00009249*
X-00032500*
X-00003750Y-00003750*
X00000250Y-00000249*
Y-00028750*
X00000999Y-00000999*
X00010749*
X00002250Y00000249*
X00001999Y00000750*
X00003249Y00002250*
X00001999*
X00001500Y-00001000*
X00000499Y-00002499*
X00000500Y-00003249*
X00000249Y-00002999*
Y-00002250*
X-00000249Y-00002499*
X-00000999Y-00001999*
X-00001500Y-00001500*
X-00024999*
X-00005750Y00005750*
Y00009249*
X-00007249*
X-00000750Y-00002749*
X00001999Y-00011500*
X00010500Y-00009249*
X00032499*
X00003750Y00003750*
G37*
G36*
Y-00270407D02*
X-00000249Y00000249D01*
Y00028750*
X-00000999Y00000999*
X-00011999*
X-00001500Y-00000249*
X-00001750Y-00000999*
X-00001749Y-00001249*
X-00001750Y-00000999*
X-00000999Y-00000249*
X-00000999Y00000249*
X-00000999Y00001249*
X-00000750Y00003249*
X-00000499Y00002999*
Y00002500*
X00000249Y00004750*
X00000999Y00001999*
X00001499Y00001499*
X00025000*
X00005749Y-00005750*
Y-00009249*
X00008250*
X-00002250Y00014249*
X-00010499Y00009250*
X-00032500*
X-00003750Y-00003750*
X00000250Y-00000249*
Y-00028750*
X00000999Y-00000999*
X00010749*
X00002250Y00000249*
X00001999Y00000750*
X00003249Y00002249*
X00001999*
X00001500Y-00000999*
X00000499Y-00002500*
X00000500Y-00003249*
X00000249Y-00002999*
Y-00002249*
X-00000249Y-00002500*
X-00000999Y-00001999*
X-00001500Y-00001499*
X-00024999*
X-00005750Y00005750*
Y00009249*
X-00007249*
X-00000750Y-00002750*
X00001999Y-00011499*
X00010500Y-00009250*
X00032499*
X00003750Y00003750*
G37*
G36*
Y-00270406D02*
X-00000249Y00000249D01*
Y00028750*
X-00000999Y00000999*
X-00011999*
X-00001500Y-00000249*
X-00001750Y-00000999*
X-00001749Y-00001250*
X-00001750Y-00000999*
X-00000999Y-00000249*
X-00000999Y00000249*
X-00000999Y00001250*
X-00000750Y00003249*
X-00000499Y00002999*
Y00002499*
X00000249Y00004750*
X00000999Y00001999*
X00001499Y00001500*
X00025000*
X00005749Y-00005750*
Y-00009249*
X00008250*
X-00002250Y00014249*
X-00010499Y00009249*
X-00032500*
X-00003750Y-00003750*
X00000250Y-00000249*
Y-00028750*
X00000999Y-00000999*
X00010749*
X00002250Y00000250*
X00001999Y00000749*
X00003249Y00002250*
X00001999*
X00001500Y-00000999*
X00000499Y-00002500*
X00000500Y-00003249*
X00000249Y-00002999*
Y-00002250*
X-00000249Y-00002499*
X-00000999Y-00001999*
X-00001500Y-00001500*
X-00024999*
X-00005750Y00005750*
Y00009250*
X-00007249*
X-00000750Y-00002750*
X00001999Y-00011500*
X00010500Y-00009249*
X00032499*
X00003750Y00003750*
G37*
G36*
Y-00270407D02*
X-00000249Y00000249D01*
Y00028750*
X-00000999Y00000999*
X-00011999*
X-00001500Y-00000249*
X-00001750Y-00000999*
X-00001749Y-00001249*
X-00001750Y-00000999*
X-00000999Y-00000249*
X-00000999Y00000249*
X-00000999Y00001249*
X-00000750Y00003249*
X-00000499Y00002999*
Y00002500*
X00000249Y00004750*
X00000999Y00001999*
X00001499Y00001499*
X00025000*
X00005749Y-00005750*
Y-00009249*
X00008250*
X-00002250Y00014249*
X-00010499Y00009250*
X-00032500*
X-00003750Y-00003750*
X00000250Y-00000249*
Y-00028750*
X00000999Y-00000999*
X00010749*
X00002250Y00000249*
X00001999Y00000750*
X00003249Y00002249*
X00001999*
X00001500Y-00000999*
X00000499Y-00002499*
X00000500Y-00003250*
X00000249Y-00002999*
Y-00002249*
X-00000249Y-00002500*
X-00000999Y-00001999*
X-00001500Y-00001499*
X-00024999*
X-00005750Y00005750*
Y00009249*
X-00007249*
X-00000750Y-00002750*
X00001999Y-00011499*
X00010500Y-00009250*
X00032499*
X00003750Y00003750*
G37*
G36*
Y-00270406D02*
X-00000249Y00000249D01*
Y00028750*
X-00000999Y00000999*
X-00011999*
X-00001500Y-00000249*
X-00001750Y-00000999*
X-00001749Y-00001250*
X-00001750Y-00000999*
X-00000999Y-00000249*
X-00000999Y00000249*
X-00000999Y00001250*
X-00000750Y00003249*
X-00000499Y00002999*
Y00002499*
X00000249Y00004750*
X00000999Y00001999*
X00001499Y00001500*
X00025000*
X00005749Y-00005750*
Y-00009249*
X00008250*
X-00002250Y00014249*
X-00010499Y00009249*
X-00032500*
X-00003750Y-00003749*
X00000250Y-00000250*
Y-00028750*
X00000999Y-00000999*
X00010749*
X00002250Y00000250*
X00001999Y00000749*
X00003249Y00002250*
X00001999*
X00001500Y-00000999*
X00000499Y-00002500*
X00000500Y-00003249*
X00000249Y-00002999*
Y-00002250*
X-00000249Y-00002499*
X-00000999Y-00001999*
X-00001500Y-00001500*
X-00024999*
X-00005750Y00005750*
Y00009250*
X-00007249*
X-00000750Y-00002750*
X00001999Y-00011500*
X00010500Y-00009249*
X00032499*
X00003750Y00003750*
G37*
G36*
Y-00270407D02*
X-00000249Y00000249D01*
Y00028750*
X-00000999Y00000999*
X-00011999*
X-00001500Y-00000249*
X-00001750Y-00000999*
X-00001749Y-00001249*
X-00001750Y-00000999*
X-00000999Y-00000249*
X-00000999Y00000249*
X-00000999Y00001249*
X-00000750Y00003249*
X-00000499Y00002999*
Y00002500*
X00000249Y00004750*
X00000999Y00001999*
X00001499Y00001499*
X00025000*
X00005749Y-00005750*
Y-00009249*
X00008250*
X-00002250Y00014249*
X-00010499Y00009250*
X-00032500*
X-00003750Y-00003750*
X00000250Y-00000249*
Y-00028750*
X00000999Y-00000999*
X00010749*
X00002250Y00000249*
X00001999Y00000750*
X00003249Y00002249*
X00001999*
X00001500Y-00000999*
X00000499Y-00002499*
X00000500Y-00003250*
X00000249Y-00002999*
Y-00002249*
X-00000249Y-00002500*
X-00000999Y-00001999*
X-00001500Y-00001499*
X-00024999*
X-00005750Y00005750*
Y00009249*
X-00007249*
X-00000750Y-00002750*
X00001999Y-00011499*
X00010500Y-00009250*
X00032499*
X00003750Y00003750*
G37*
G36*
Y-00270406D02*
X-00000249Y00000249D01*
Y00028750*
X-00000999Y00000999*
X-00011999*
X-00001500Y-00000249*
X-00001750Y-00000999*
X-00001749Y-00001250*
X-00001750Y-00000999*
X-00000999Y-00000249*
X-00000999Y00000249*
X-00000999Y00001250*
X-00000750Y00003249*
X-00000499Y00002999*
Y00002499*
X00000249Y00004750*
X00000999Y00001999*
X00001499Y00001500*
X00025000*
X00005749Y-00005750*
Y-00009249*
X00008250*
X-00002250Y00014249*
X-00010499Y00009249*
X-00032500*
X-00003750Y-00003749*
X00000250Y-00000250*
Y-00028750*
X00000999Y-00000999*
X00010749*
X00002250Y00000250*
X00001999Y00000749*
X00003249Y00002250*
X00001999*
X00001500Y-00000999*
X00000499Y-00002500*
X00000500Y-00003249*
X00000249Y-00002999*
Y-00002250*
X-00000249Y-00002499*
X-00000999Y-00001999*
X-00001500Y-00001500*
X-00024999*
X-00005750Y00005750*
Y00009250*
X-00007249*
X-00000750Y-00002750*
X00001999Y-00011500*
X00010500Y-00009249*
X00032499*
X00003750Y00003750*
G37*
%LNlayer_4-3*%
%LPD*%
G54D97*
X02149479Y00184954D03*
Y-00150000D03*
X-00225000D03*
Y00100000D03*
X-01177999Y-00049999D03*
Y00149999D03*
X00225000Y-00100000D03*
X00408499Y00082499D03*
Y-00074999D03*
X00838000Y-00082499D03*
Y00149999D03*
X-00738000Y00034999D03*
Y-00149999D03*
X-00919999Y00006999D03*
Y00149999D03*
X-00308000Y-00164999D03*
Y00149999D03*
X00072750Y-00000499D03*
Y-00187500D03*
X00100000Y00187500D03*
Y-00187500D03*
X00058249Y00111499D03*
Y00075000D03*
G54D98*
X00488500Y-00000500D03*
G54D99*
X-00807500Y-00134999D03*
G54D100*
X00005999Y00140999D03*
Y-00075000D03*
X02104999Y00034000D03*
X00030000D03*
X-00030000Y-00129999D03*
X00030000D03*
X-02243000Y00162999D03*
X00049999Y-00034999D03*
X02326000Y-00002500D03*
X-00050000Y-00034999D03*
Y-00100000D03*
X00050000Y00034999D03*
X-02238499Y-00059500D03*
X00074999D03*
X00391840Y00076380D03*
X-00008681Y00049239D03*
G54D101*
X-00008819Y00061219D03*
X-00017678Y-00017677D03*
G54D102*
X00030339Y-00157160D03*
X00024999D03*
G54D103*
X00316718Y00106436D03*
X00027563Y00096126D03*
G54D104*
X00862573Y-00068918D03*
G54D105*
X-00070710Y00070710D03*
G54D106*
X-01710645Y-00177855D03*
X-00049999Y-00034999D03*
Y00123499D03*
G54D107*
X00556999Y-00119999D03*
X-00149999D03*
G54D97*
X01680500Y00412406D03*
Y00270407D03*
Y00270406D03*
Y00270407D03*
Y00270406D03*
Y00270407D03*
Y00270406D03*
Y-01772441D03*
Y00270406D03*
Y00270407D03*
Y00270406D03*
Y00270407D03*
Y00270406D03*
Y00270407D03*
X-00225000Y-01622442D03*
Y00270406D03*
Y00270407D03*
Y00270406D03*
Y00270407D03*
Y00270406D03*
Y00270407D03*
Y-01522441D03*
Y00270406D03*
Y00270407D03*
Y00270406D03*
Y00270407D03*
Y00270406D03*
Y00270407D03*
X-01177999Y-01672442D03*
Y00270407D03*
Y00270406D03*
Y00270407D03*
Y00270406D03*
Y00270407D03*
Y00270406D03*
Y-01472441D03*
Y00270406D03*
Y00270406D03*
Y00270407D03*
Y00270406D03*
Y00270407D03*
Y00270406D03*
X00225000Y-01722441D03*
Y00270406D03*
Y00270407D03*
Y00270406D03*
Y00270407D03*
Y00270406D03*
Y00270407D03*
X00408499Y-01539942D03*
Y00270406D03*
Y00270407D03*
Y00270406D03*
Y00270407D03*
Y00270406D03*
Y00270407D03*
Y-01697442D03*
Y00270407D03*
Y00270406D03*
Y00270407D03*
Y00270406D03*
Y00270407D03*
Y00270406D03*
X00838000Y-01704941D03*
Y00270407D03*
Y00270406D03*
Y00270407D03*
Y00270406D03*
Y00270407D03*
Y00270406D03*
Y-01472442D03*
Y00270407D03*
Y00270406D03*
Y00270407D03*
Y00270406D03*
Y00270407D03*
Y00270406D03*
X-00738000Y-01587441D03*
Y00270406D03*
Y00270407D03*
Y00270406D03*
Y00270407D03*
Y00270406D03*
Y00270407D03*
Y-01772442D03*
Y00270407D03*
Y00270406D03*
Y00270407D03*
Y00270406D03*
Y00270407D03*
Y00270406D03*
X-00919999Y-01615442D03*
Y00270407D03*
Y00270406D03*
Y00270407D03*
Y00270406D03*
Y00270407D03*
Y00270406D03*
Y-01472441D03*
Y00270406D03*
Y00270407D03*
Y00270406D03*
Y00270407D03*
Y00270406D03*
Y00270407D03*
X-00308000Y-01787442D03*
Y00270407D03*
Y00270406D03*
Y00270407D03*
Y00270406D03*
Y00270407D03*
Y00270406D03*
Y-01472441D03*
Y00270406D03*
Y00270406D03*
Y00270407D03*
Y00270406D03*
Y00270407D03*
Y00270406D03*
X00072750Y-01622941D03*
Y00270407D03*
Y00270406D03*
Y00270406D03*
Y00270407D03*
Y00270406D03*
Y00270407D03*
Y-01809942D03*
Y00270407D03*
Y00270406D03*
Y00270407D03*
Y00270406D03*
Y00270406D03*
Y00270407D03*
X00100000Y-01434942D03*
Y00270407D03*
Y00270406D03*
Y00270406D03*
Y00270407D03*
Y00270406D03*
Y00270407D03*
Y-01809942D03*
Y00270407D03*
Y00270406D03*
Y00270407D03*
Y00270406D03*
Y00270406D03*
Y00270407D03*
X00058249Y-01510942D03*
Y00270407D03*
Y00270406D03*
Y00270407D03*
Y00270406D03*
Y00270407D03*
Y00270406D03*
Y-01547441D03*
Y00270406D03*
Y00270407D03*
Y00270406D03*
Y00270407D03*
Y00270406D03*
Y00270407D03*
G54D98*
X00488500Y-01622941D03*
Y00270406D03*
Y00270406D03*
Y00270407D03*
Y00270406D03*
Y00270407D03*
Y00270406D03*
G54D99*
X-00807500Y-01757442D03*
Y00270407D03*
Y00270406D03*
Y00270407D03*
Y00270406D03*
Y00270407D03*
Y00270406D03*
G54D100*
X00005999Y-01481441D03*
Y00270406D03*
Y00270407D03*
Y00270406D03*
Y00270407D03*
Y00270406D03*
Y00270406D03*
Y-01697441D03*
Y00270406D03*
Y00270407D03*
Y00270406D03*
Y00270407D03*
Y00270406D03*
Y00270407D03*
X02104999Y-01588442D03*
Y00270407D03*
Y00270406D03*
Y00270407D03*
Y00270406D03*
Y00270407D03*
Y00270406D03*
X00030000Y-01622442D03*
Y00270407D03*
Y00270406D03*
Y00270407D03*
Y00270406D03*
Y00270407D03*
Y00270406D03*
X-00030000Y-01752442D03*
Y00270407D03*
Y00270406D03*
Y00270407D03*
Y00270406D03*
Y00270407D03*
Y00270406D03*
X00030000Y-01622442D03*
Y00270407D03*
Y00270406D03*
Y00270407D03*
Y00270406D03*
Y00270407D03*
Y00270406D03*
X-02243000Y-01459442D03*
Y00270407D03*
Y00270406D03*
Y00270407D03*
Y00270406D03*
Y00270407D03*
Y00270406D03*
X00049999Y-01657441D03*
Y00270407D03*
Y00270406D03*
Y00270407D03*
Y00270406D03*
Y00270407D03*
Y00270406D03*
X02326000Y-01624941D03*
Y00270406D03*
Y00270407D03*
Y00270406D03*
Y00270407D03*
Y00270406D03*
Y00270407D03*
X-00050000Y-01657442D03*
Y00270407D03*
Y00270406D03*
Y00270407D03*
Y00270406D03*
Y00270407D03*
Y00270406D03*
Y-01722441D03*
Y00270406D03*
Y00270407D03*
Y00270406D03*
Y00270407D03*
Y00270406D03*
Y00270407D03*
X00050000Y-01587442D03*
Y00270406D03*
Y00270407D03*
Y00270406D03*
Y00270407D03*
Y00270406D03*
Y00270407D03*
X-02238499Y-01681942D03*
Y00270406D03*
Y00270407D03*
Y00270406D03*
Y00270407D03*
Y00270406D03*
Y00270407D03*
X00074999Y-01622442D03*
Y00270406D03*
Y00270407D03*
Y00270406D03*
Y00270407D03*
Y00270406D03*
Y00270407D03*
X00391840Y-01546061D03*
Y00270406D03*
Y00270407D03*
Y00270406D03*
Y00270407D03*
Y00270406D03*
Y00270407D03*
X-00008681Y-01573202D03*
Y00270406D03*
Y00270407D03*
Y00270406D03*
Y00270407D03*
Y00270406D03*
Y00270407D03*
G54D101*
X-00008819Y-01561222D03*
Y00270406D03*
Y00270407D03*
Y00270406D03*
Y00270407D03*
Y00270406D03*
Y00270406D03*
X-00017678Y-01640119D03*
Y00270407D03*
Y00270406D03*
Y00270407D03*
Y00270406D03*
Y00270407D03*
Y00270406D03*
G54D102*
X00030339Y-01779602D03*
Y00270407D03*
Y00270406D03*
Y00270406D03*
Y00270407D03*
Y00270406D03*
Y00270407D03*
X00024999Y-01622442D03*
Y00270407D03*
Y00270406D03*
Y00270406D03*
Y00270407D03*
Y00270406D03*
Y00270407D03*
G54D103*
X00316718Y-01516005D03*
Y00270407D03*
Y00270406D03*
Y00270407D03*
Y00270406D03*
Y00270407D03*
Y00270406D03*
X00027563Y-01526315D03*
Y00270407D03*
Y00270406D03*
Y00270407D03*
Y00270406D03*
Y00270407D03*
Y00270406D03*
G54D104*
X00862573Y-01691360D03*
Y00270407D03*
Y00270406D03*
Y00270407D03*
Y00270406D03*
Y00270407D03*
Y00270406D03*
G54D105*
X-00070710Y-01551731D03*
Y00270407D03*
Y00270406D03*
Y00270407D03*
Y00270406D03*
Y00270407D03*
Y00270406D03*
G54D106*
X-01710645Y-01800296D03*
Y00270406D03*
Y00270407D03*
Y00270406D03*
Y00270407D03*
Y00270406D03*
Y00270407D03*
X-00049999Y-01657442D03*
Y00270407D03*
Y00270406D03*
Y00270407D03*
Y00270406D03*
Y00270407D03*
Y00270406D03*
Y-01498941D03*
Y00270406D03*
Y00270407D03*
Y00270406D03*
Y00270407D03*
Y00270406D03*
Y00270407D03*
G54D107*
X00556999Y-01742442D03*
Y00270406D03*
Y00270407D03*
Y00270406D03*
Y00270407D03*
Y00270406D03*
Y00270407D03*
X-00149999Y-01622442D03*
Y00270406D03*
Y00270407D03*
Y00270406D03*
Y00270407D03*
Y00270406D03*
Y00270407D03*
G54D10*
X01981000Y-01935849D02*
X00049998D01*
Y00050000*
X-02499998Y00169999D02*
Y00050407D01*
X00049999*
X-00049999*
Y00049999*
X00049999Y-00320407D02*
X-00049999D01*
Y00050000*
X02499998Y00270406D02*
Y-00049999D01*
X-00049998*
X00049998*
Y-00050407*
X-02499998Y00270406D02*
Y00050407D01*
X00049999*
X-00049999*
Y00050000*
Y00169999D02*
Y00050407D01*
X00049999*
X-00049999*
Y00049999*
Y00169999D02*
Y00050407D01*
X00049999*
X-00049999*
Y00050000*
Y00169999D02*
Y00050407D01*
X00049999*
X-00049999*
Y00049999*
Y00169999D02*
Y00050407D01*
X00049999*
X-00049999*
Y00049999*
Y00170000D02*
Y00050407D01*
X00049999*
X-00049999*
Y00049999*
Y00169999D02*
Y00050558D01*
X00049999*
X02449998Y-01673000D02*
Y00050407D01*
X-00049998*
X00049998*
Y00050000*
Y00169999D02*
Y00050407D01*
X-00049998*
X00049998*
Y00049999*
Y00169999D02*
Y00050407D01*
X-00049998*
X00049998*
Y00050000*
Y00169999D02*
Y00050407D01*
X-00049998*
X00049998*
Y00049999*
Y00169999D02*
Y00050407D01*
X-00049998*
X00049998*
Y00049999*
Y00170000D02*
Y00050407D01*
X-00049998*
X00049998*
Y00049999*
X-00049998Y00220558D02*
X00049998D01*
Y-00050558*
M02*